xxxxxxxxxxxxxxxxxxxxxx
xs                 xgx
xxxxxxxxxxxxxxxxxx xxx
x                  x x
x xxxxxxxxxxxxxxxxxx x
x                  x x
xxxxxxxxxxxxxxxxxx x x
x                  x x
x xxxxxxxxxxxxxxxxxx x
x                    x
xxxxxxxxxxxxxxxxxxxxxx